{
  "swagger" : "2.0",
  "info" : {
    "title" : "Testing",
    "description" : "Version 2",
    "version" : "2.0.0"
  },
  "consumes" : [ "application/json" ],
  "produces" : [ "application/json" ]
}